[
  {
    "id": "1",
    "name": "Esempio",
    "group": "guest",
    "signature": {
      "firstName": "Mario",
      "lastName": "Rossi",
      "role": "Creatore di firme",
      "department": "Marketing",
      "site": "Pallino 2",
      "address": "Via Delle Industrie, 12, Pallino (25252), Italia",
      "phone": "+39 0364 123 456",
      "phoneInternal": "21",
      "email": "pinco.pallo@pallino.it",

      "legalName": "PALLINO SRL",
      "colorPrimary": "#000",
      "logoUrl": "https://signatures.nexioapp.com/signature/logo/logo.png",
      "websiteUrl": "https://www.pallino.it",
      "legalMapsUrl": "https://goo.gl/maps/ZwnFopVC5s5wXmxdA",
      "legalAddress": "Via Pinco Pallo, 42, Pallino (25252), Italia",
      "legalPhone": "+39 0364 123 456",
      "legalPhoneUrl": "tel:+39 0364 123 456",
      "legalEmail": "info@pallino.it",
      "legalEmailUrl": "mailto:info@pallino.it",

      "fbIconUrl": "https://signatures.nexioapp.com/signature/icons/fb.png",
      "fbUrl": "https://www.facebook.com/",
      "twitterIconUrl": "https://signatures.nexioapp.com/signature/icons/tt.png",
      "twitterUrl": "https://twitter.com/",
      "linkedinIconUrl": "https://signatures.nexioapp.com/signature/icons/ln.png",
      "linkedinUrl": "https://www.linkedin.com/",
      "youtubeIconUrl": "https://signatures.nexioapp.com/signature/icons/yt.png",
      "youtubeUrl": "https://www.youtube.com/",

      "phoneIconUrl": "https://signatures.nexioapp.com/signature/icons/phone-solid.svg",
      "emailIconUrl": "https://signatures.nexioapp.com/signature/icons/envelope-solid.svg"
    }
  },
  {
    "id": "2",
    "name": "Vuoto",
    "group": "guest",
    "signature": {
      "firstName": "",
      "lastName": "",
      "role": "",
      "department": "",
      "site": "",
      "address": "",
      "phone": "",
      "phoneInternal": "",
      "email": "",

      "legalName": "",
      "colorPrimary": "",
      "logoUrl": "https://signatures.nexioapp.com/signature/logo/logo.png",
      "websiteUrl": "",
      "legalMapsUrl": "",
      "legalAddress": "",
      "legalPhone": "",
      "legalPhoneUrl": "",
      "legalEmail": "",
      "legalEmailUrl": "",

      "fbIconUrl": "https://signatures.nexioapp.com/signature/icons/fb.png",
      "fbUrl": "",
      "twitterIconUrl": "https://signatures.nexioapp.com/signature/icons/tt.png",
      "twitterUrl": "",
      "linkedinIconUrl": "https://signatures.nexioapp.com/signature/icons/ln.png",
      "linkedinUrl": "",
      "youtubeIconUrl": "https://signatures.nexioapp.com/signature/icons/yt.png",
      "youtubeUrl": "",

      "phoneIconUrl": "https://signatures.nexioapp.com/signature/icons/phone-solid.svg",
      "emailIconUrl": "https://signatures.nexioapp.com/signature/icons/envelope-solid.svg"
    }
  },
  {
    "id": "3",
    "name": "MC group",
    "group": "metalcamuna",
    "signature": {
      "firstName": "",
      "lastName": "",
      "role": "",
      "department": "",
      "site": "MC GROUP",
      "address": "",
      "phone": "",
      "phoneInternal": "",
      "email": "",

      "legalName": "METAL CAMUNA GROUP",
      "colorPrimary": "#d00909",
      "logoUrl": "https://metalcamuna.it/signature/logo/group.png",
      "websiteUrl": "https://www.metalcamuna.it/",
      "legalMapsUrl": "https://goo.gl/maps/ZwnFopVC5s5wXmxdA",
      "legalAddress": "Via Nazionale 37/G, Ceto (BS), 25040, Italy",
      "legalPhone": "+39 0364 434020",
      "legalPhoneUrl": "tel:+39 0364 434020",
      "legalEmail": "info@metalcamuna.it",
      "legalEmailUrl": "mailto:info@metalcamuna.it",

      "fbIconUrl": "https://metalcamuna.it/signature/icons/fb.png",
      "fbUrl": "https://www.facebook.com/metalcamunabrescia/",
      "twitterIconUrl": "https://metalcamuna.it/signature/icons/tt.png",
      "twitterUrl": "https://twitter.com/",
      "linkedinIconUrl": "https://metalcamuna.it/signature/icons/ln.png",
      "linkedinUrl": "https://www.linkedin.com/company/metal-camuna-srl/",
      "youtubeIconUrl": "https://metalcamuna.it/signature/icons/yt.png",

      "phoneIconUrl": "https://metalcamuna.it/signature/icons/phone-solid.svg",
      "emailIconUrl": "https://metalcamuna.it/signature/icons/envelope-solid.svg"
    }
  },
  {
    "id": "4",
    "name": "MC 2",
    "group": "metalcamuna",
    "signature": {
      "firstName": "",
      "lastName": "",
      "role": "",
      "department": "",
      "site": "MC 2",
      "address": "",
      "phone": "",
      "phoneInternal": "",
      "email": "",

      "legalName": "METAL CAMUNA GROUP",
      "colorPrimary": "#45639e",
      "logoUrl": "https://metalcamuna.it/signature/logo/mc2.png",
      "websiteUrl": "https://www.metalcamuna.it/",
      "legalMapsUrl": "https://goo.gl/maps/ZwnFopVC5s5wXmxdA",
      "legalAddress": "Via Nazionale 37/G, Ceto (BS), 25040, Italy",
      "legalPhone": "+39 0364 434020",
      "legalPhoneUrl": "tel:+39 0364 434020",
      "legalEmail": "info@metalcamuna.it",
      "legalEmailUrl": "mailto:info@metalcamuna.it",

      "fbIconUrl": "https://metalcamuna.it/signature/icons/fb.png",
      "fbUrl": "https://www.facebook.com/metalcamunabrescia/",
      "twitterIconUrl": "https://metalcamuna.it/signature/icons/tt.png",
      "twitterUrl": "https://twitter.com/",
      "linkedinIconUrl": "https://metalcamuna.it/signature/icons/ln.png",
      "linkedinUrl": "https://www.linkedin.com/company/metal-camuna-srl/",
      "youtubeIconUrl": "https://metalcamuna.it/signature/icons/yt.png",

      "phoneIconUrl": "https://metalcamuna.it/signature/icons/phone-solid.svg",
      "emailIconUrl": "https://metalcamuna.it/signature/icons/envelope-solid.svg"
    }
  },
  {
    "id": "5",
    "name": "MC 3",
    "group": "metalcamuna",
    "signature": {
      "firstName": "",
      "lastName": "",
      "role": "",
      "department": "",
      "site": "MC 3",
      "address": "",
      "phone": "",
      "phoneInternal": "",
      "email": "",

      "legalName": "METAL CAMUNA GROUP",
      "colorPrimary": "#535350",
      "logoUrl": "https://metalcamuna.it/signature/logo/mc3.png",
      "websiteUrl": "https://www.metalcamuna.it/",
      "legalMapsUrl": "https://goo.gl/maps/ZwnFopVC5s5wXmxdA",
      "legalAddress": "Via Nazionale 37/G, Ceto (BS), 25040, Italy",
      "legalPhone": "+39 0364 434020",
      "legalPhoneUrl": "tel:+39 0364 434020",
      "legalEmail": "info@metalcamuna.it",
      "legalEmailUrl": "mailto:info@metalcamuna.it",

      "fbIconUrl": "https://metalcamuna.it/signature/icons/fb.png",
      "fbUrl": "https://www.facebook.com/metalcamunabrescia/",
      "twitterIconUrl": "https://metalcamuna.it/signature/icons/tt.png",
      "twitterUrl": "https://twitter.com/",
      "linkedinIconUrl": "https://metalcamuna.it/signature/icons/ln.png",
      "linkedinUrl": "https://www.linkedin.com/company/metal-camuna-srl/",
      "youtubeIconUrl": "https://metalcamuna.it/signature/icons/yt.png",

      "phoneIconUrl": "https://metalcamuna.it/signature/icons/phone-solid.svg",
      "emailIconUrl": "https://metalcamuna.it/signature/icons/envelope-solid.svg"
    }
  },
  {
    "id": "6",
    "name": "NEXIO INFORMATICA",
    "group": "nexioinformatica",
    "signature": {
      "firstName": "",
      "lastName": "",
      "role": "",
      "department": "",
      "site": "NEXIO INFORMATICA",
      "address": "",
      "phone": "",
      "phoneInternal": "",
      "email": "",

      "legalName": "NEXIO INFORMATICA srl",
      "colorPrimary": "#009DE3",
      "logoUrl": "https://www.nexioinformatica.com/storage/signature/logo/logo.png",
      "websiteUrl": "https://www.nexioinformatica.com",
      "legalMapsUrl": "https://goo.gl/maps/GbjRgkqxCnA7U9F69",
      "legalAddress": "Via Nazionale, 19, Capo di Ponte (BS), 25044, Italy",
      "legalPhone": "+39 393 531 4690",
      "legalPhoneUrl": "tel:+39 393 531 4690",
      "legalEmail": "info@nexioinformatica.it",
      "legalEmailUrl": "mailto:info@nexioinformatica.it",

      "fbIconUrl": "https://www.nexioinformatica.com/storage/signature/icons/fb.png",
      "fbUrl": "https://www.facebook.com/",
      "twitterIconUrl": "https://www.nexioinformatica.com/storage/signature/icons/tt.png",
      "twitterUrl": "https://twitter.com/",
      "linkedinIconUrl": "https://www.nexioinformatica.com/storage/signature/icons/ln.png",
      "linkedinUrl": "https://www.linkedin.com/",
      "youtubeIconUrl": "https://www.nexioinformatica.com/storage/signature/icons/yt.png",

      "phoneIconUrl": "https://www.nexioinformatica.com/storage/signature/icons/phone-solid.svg",
      "emailIconUrl": "https://www.nexioinformatica.com/storage/signature/icons/envelope-solid.svg"
    }
  }
]
